<svg width="14" height="12" viewBox="0 0 14 12" fill="none" xmlns="http://www.w3.org/2000/svg">
<path d="M0.536014 10.499C0.150049 11.1657 0.631107 12 1.40144 12H12.5992C13.3695 12 13.8506 11.1657 13.4646 10.499L7.86575 0.828203C7.48059 0.162918 6.52006 0.162916 6.1349 0.828201L0.536014 10.499ZM7.66699 9.33337C7.66699 9.70156 7.36852 10 7.00033 10C6.63214 10 6.33366 9.70156 6.33366 9.33337C6.33366 8.96518 6.63214 8.66671 7.00033 8.66671C7.36852 8.66671 7.66699 8.96518 7.66699 9.33337ZM7.66699 6.66671C7.66699 7.0349 7.36852 7.33337 7.00033 7.33337C6.63214 7.33337 6.33366 7.0349 6.33366 6.66671V5.33337C6.33366 4.96518 6.63214 4.66671 7.00033 4.66671C7.36852 4.66671 7.66699 4.96518 7.66699 5.33337V6.66671Z" fill="#FF9800"/>
</svg>
