<svg width="80" height="80" viewBox="0 0 80 80" fill="none" xmlns="http://www.w3.org/2000/svg">
<path d="M39.8602 10.1656C40.7293 10.1656 41.4338 9.46109 41.4338 8.59203V1.57359C41.4338 0.704531 40.7293 0 39.8602 0C38.9911 0 38.2866 0.704531 38.2866 1.57359V8.59203C38.2868 9.46109 38.9913 10.1656 39.8602 10.1656Z" fill="url(#paint0_linear_350:10348)"/>
<path d="M78.325 54.0601L75.5451 51.2881C74.5562 50.3004 73.2382 49.7564 71.8339 49.7564C70.9359 49.7564 70.0739 49.9798 69.31 50.3984L64.0715 45.1662L64.3267 44.9114C66.4518 42.782 66.451 39.3218 64.3265 37.1996C63.5673 36.439 62.62 35.9318 61.5873 35.7184C61.7295 35.2276 61.8043 34.7136 61.8043 34.1875C61.8043 32.7257 61.2365 31.3551 60.2087 30.3315C59.4493 29.5709 58.5021 29.0637 57.4695 28.8503C57.6117 28.3595 57.6865 27.8456 57.6865 27.3193C57.6865 25.8575 57.1187 24.487 56.0892 23.4618C55.3117 22.6853 54.3559 22.1937 53.3523 21.9845C53.8892 20.1334 53.4304 18.0507 51.9742 16.592C50.762 15.385 49.1171 14.8662 47.532 15.0343L37.1515 13.0695C35.5684 12.7692 33.5914 12.5706 32.3434 13.7089C32.2646 13.7807 32.1843 13.8634 32.1053 13.9554C30.1703 13.2501 27.9134 13.6701 26.3639 15.2179C25.3359 16.2446 24.7696 17.6146 24.7696 19.0756C24.7696 19.6018 24.8442 20.1157 24.9862 20.6067C23.9546 20.82 23.0086 21.3265 22.2518 22.0846C21.2218 23.1104 20.6539 24.4789 20.6528 25.9381C20.6523 26.4656 20.7271 26.9812 20.87 27.4734C19.8379 27.6862 18.8912 28.1918 18.1321 28.95C17.1021 29.9789 16.535 31.3496 16.535 32.8098C16.535 33.9282 16.8689 34.9937 17.4876 35.8937C16.7064 36.1586 15.9907 36.5993 15.3915 37.1979C13.265 39.3218 13.2642 42.7821 15.3929 44.9146L15.6471 45.1678L10.4081 50.3973C8.46105 49.4806 6.06215 49.824 4.45543 51.4287L1.67387 54.2025C0.684492 55.1906 0.139805 56.5087 0.139648 57.9139C0.139648 59.3192 0.684492 60.6375 1.67387 61.6257L5.14527 65.0929C5.76012 65.7071 6.75652 65.7065 7.37059 65.0917C7.9848 64.4768 7.98418 63.4804 7.36934 62.8664L3.89793 59.3992C3.50387 59.0056 3.28684 58.4781 3.28684 57.914C3.28684 57.3501 3.50387 56.8228 3.89699 56.4301L6.67871 53.6562C7.37371 52.962 8.43746 52.8586 9.24527 53.3415C9.30215 53.427 9.36793 53.5082 9.44324 53.5837C9.57809 53.7189 9.73199 53.8225 9.89543 53.8982L25.8475 69.8268C25.9232 69.992 26.0273 70.1475 26.1631 70.2834C26.2953 70.4157 26.4461 70.5181 26.6061 70.5934C26.9434 70.9748 27.1298 71.462 27.1298 71.9817C27.1298 72.5457 26.9128 73.0731 26.5187 73.4667L23.7398 76.2423C22.9187 77.0598 21.5831 77.0596 20.7645 76.2448L17.2931 72.7731C16.6786 72.1586 15.6823 72.1586 15.0678 72.7731C14.4532 73.3876 14.4532 74.3839 15.0678 74.9984L18.5417 78.4726C19.5642 79.4909 20.907 79.9998 22.2504 79.9998C23.5942 79.9998 24.9386 79.4901 25.9623 78.4709L28.7429 75.6936C29.7323 74.7053 30.2771 73.3871 30.2771 71.9817C30.2771 70.9787 29.9982 70.0209 29.4796 69.195L35.3759 63.3059C35.3821 63.2995 35.3884 63.2931 35.3948 63.2867C36.07 62.5887 37.9501 62.7193 39.7684 62.8456C41.0603 62.9354 42.5006 63.0353 43.9078 62.8731L50.3646 69.3223C49.9464 70.085 49.7231 70.9459 49.7231 71.8425C49.7231 73.2464 50.2679 74.5637 51.2573 75.552L54.0381 78.3293C55.0268 79.317 56.3448 79.8611 57.7492 79.8611C59.1534 79.8611 60.4714 79.3171 61.4603 78.3293L78.326 61.484C79.3154 60.4959 79.8603 59.1778 79.8603 57.7725C79.8601 56.3673 79.3153 55.0492 78.325 54.0601ZM36.5656 16.1617L43.3917 17.4537L39.3059 21.5379C38.6739 21.2342 37.8076 20.6676 36.8573 19.7586C35.5565 18.5142 34.6261 17.0775 34.5414 16.1814C34.5412 16.1809 34.5412 16.1804 34.5412 16.18C34.5412 16.1798 34.5411 16.1796 34.5411 16.1795C34.535 16.1151 34.5334 16.0637 34.5342 16.0245C34.74 15.9745 35.2865 15.919 36.5656 16.1617ZM28.5878 17.4446C29.385 16.6482 30.6234 16.5564 31.5242 17.1664C32.0346 19.3067 33.8604 21.2465 34.6818 22.0325C35.2906 22.615 37.2439 24.3614 39.2154 24.8414C39.4822 25.2237 39.6273 25.6795 39.6273 26.1604C39.6273 26.78 39.389 27.3592 38.9548 27.7929C38.5218 28.2267 37.9417 28.4654 37.3211 28.4654C36.7003 28.4654 36.1201 28.2267 35.6851 27.7909L35.685 27.7907L35.6842 27.79L28.5876 20.7062C28.155 20.2742 27.9167 19.695 27.9167 19.0756C27.9168 18.4561 28.1551 17.8768 28.5878 17.4446ZM24.4759 24.3114C24.9089 23.8778 25.4884 23.6389 26.1081 23.6389C26.7286 23.6389 27.31 23.8782 27.7457 24.3136L33.4601 30.0165C34.36 30.9178 34.36 32.3843 33.4632 33.2825C33.0279 33.7161 32.4457 33.9548 31.824 33.9548C31.2023 33.9548 30.6201 33.7161 30.1867 33.2843L30.1865 33.2842L25.8514 28.95C25.8447 28.9432 25.8373 28.937 25.8304 28.9301L24.4742 27.5745C24.039 27.1398 23.7995 26.5595 23.8 25.9404C23.8006 25.3234 24.0393 24.7461 24.4759 24.3114ZM20.3562 31.1767C20.7895 30.744 21.3703 30.5057 21.9918 30.5057C22.6082 30.5057 23.184 30.7406 23.6154 31.1657L27.9639 35.5121C28.3975 35.944 28.6364 36.5226 28.6364 37.1414C28.6364 37.76 28.3975 38.3386 27.9621 38.7721C27.529 39.2046 26.9489 39.4429 26.3284 39.4429C25.707 39.4429 25.125 39.204 24.6912 38.7721L23.1148 37.1976C23.1145 37.1971 23.114 37.1968 23.1137 37.1965L20.3564 34.4425C19.9217 34.0082 19.6823 33.4282 19.6823 32.8095C19.6823 32.1909 19.9217 31.6107 20.3562 31.1767ZM17.6156 39.4245C18.0507 38.9898 18.6323 38.7504 19.2531 38.7504C19.8737 38.7504 20.4551 38.9896 20.8901 39.424L22.4687 41.0007C22.9025 41.4326 23.1412 42.0112 23.1412 42.63C23.1412 43.2487 22.9023 43.8271 22.4654 44.2625C22.0325 44.6961 21.4523 44.935 20.8317 44.935C20.2109 44.935 19.6307 44.6962 19.1946 44.2593L18.997 44.0625C18.9943 44.0598 18.9923 44.057 18.9898 44.0545C18.9868 44.0517 18.9837 44.0492 18.9807 44.0464L17.6171 42.6881C16.7173 41.7864 16.7165 40.3225 17.6156 39.4245ZM49.6834 57.3086C49.0692 56.6936 48.0728 56.6931 47.4581 57.3071L46.0581 58.7054C44.7278 60.0357 42.3173 59.8682 39.9862 59.7065C37.4548 59.5306 34.8372 59.349 33.1432 61.0881L27.3471 66.8771L12.8529 52.4042L17.9823 47.284C18.8301 47.8037 19.8084 48.0823 20.832 48.0823C22.2943 48.0823 23.6656 47.5154 24.6898 46.4893C25.7209 45.4625 26.2889 44.092 26.2889 42.6301C26.2889 42.6165 26.2879 42.6031 26.2879 42.5895C26.3015 42.5896 26.3151 42.5904 26.3287 42.5904C27.789 42.5904 29.1592 42.0253 30.1848 41.0009C31.2159 39.974 31.7839 38.6034 31.7839 37.1417C31.7839 37.1281 31.7829 37.1146 31.7829 37.1011C31.7967 37.1011 31.8104 37.102 31.8243 37.102C33.2842 37.102 34.6551 36.5375 35.6876 35.5092C36.7595 34.4356 37.2896 33.0221 37.2795 31.6117C37.2936 31.6118 37.3076 31.6126 37.3217 31.6126C38.784 31.6125 40.1551 31.0457 41.1809 30.0181C42.2089 28.9914 42.7751 27.6214 42.7751 26.1604C42.7751 25.1387 42.4973 24.162 41.9793 23.3159L46.4751 18.822C46.8101 18.4884 47.2232 18.279 47.6562 18.1926C47.7031 18.1876 47.7493 18.1801 47.7951 18.1711C48.4898 18.0753 49.2193 18.2896 49.7506 18.8187C50.6504 19.7201 50.6504 21.1867 49.7539 22.0848L48.3846 23.4484C48.3801 23.4529 48.3753 23.457 48.3707 23.4615L46.7937 25.0359C46.1787 25.65 46.1781 26.6464 46.7923 27.2612C47.4067 27.8762 48.4029 27.8767 49.0176 27.2626L50.3923 25.8898C50.3926 25.8895 50.3929 25.8892 50.3932 25.8889L50.6011 25.6818C51.5034 24.7878 52.9653 24.7896 53.8667 25.6898C54.3004 26.1217 54.5393 26.7003 54.5393 27.319C54.5393 27.9376 54.3004 28.5162 53.8632 28.9515L52.4862 30.3314C52.486 30.3315 52.4859 30.3317 52.4857 30.332L50.9089 31.9025C50.2931 32.5157 50.2911 33.5121 50.9043 34.1278C51.5176 34.7436 52.5139 34.7454 53.1296 34.1323L54.7137 32.5546C55.1467 32.1209 55.7268 31.8821 56.3475 31.8821C56.9682 31.8821 57.5485 32.1209 57.9846 32.5578C58.4184 32.9898 58.6571 33.5684 58.6571 34.1871C58.6571 34.8057 58.4184 35.3843 57.9821 35.8187L55.2368 38.5651C54.6225 39.1798 54.6226 40.1761 55.2371 40.7904C55.5445 41.0976 55.947 41.2511 56.3496 41.2511C56.7525 41.2511 57.1553 41.0973 57.4625 40.79L58.8079 39.444C58.8156 39.4367 58.8239 39.4303 58.8315 39.4226C59.2645 38.9889 59.8446 38.7501 60.4653 38.7501C61.0861 38.7501 61.6662 38.9889 62.1007 39.4242C62.9996 40.3221 62.9989 41.7862 62.1007 42.6859L60.7328 44.0523C60.7323 44.0528 60.7317 44.0532 60.7312 44.0537C60.7307 44.0542 60.7303 44.0548 60.7298 44.0553L58.5586 46.2239C57.9437 46.8381 57.9431 47.8345 58.5571 48.4493C58.8645 48.757 59.2676 48.9109 59.6706 48.9109C60.0729 48.9109 60.4754 48.7575 60.7826 48.4507L61.8446 47.39L66.9348 52.4742L52.4418 66.9495L47.249 61.7629C47.6111 61.5301 47.9575 61.2564 48.2826 60.9312L49.6818 59.5337C50.297 58.9198 50.2976 57.9234 49.6834 57.3086ZM76.1018 59.2573L59.2361 76.1026C58.8415 76.4967 58.3134 76.7137 57.749 76.7137C57.1846 76.7137 56.6565 76.4967 56.2618 76.1025L53.4811 73.3251C53.087 72.9317 52.87 72.4051 52.87 71.8425C52.87 71.28 53.087 70.7534 53.4811 70.3598L70.3468 53.5145C70.7415 53.1203 71.2695 52.9032 71.834 52.9032C72.3984 52.9032 72.9265 53.1203 73.3221 53.5154L76.102 56.2875C76.4961 56.6811 76.7131 57.2082 76.7131 57.7723C76.7129 58.3365 76.4959 58.8639 76.1018 59.2573Z" fill="white" fill-opacity="0.7"/>
<path d="M18.9651 8.83889C19.2723 9.14545 19.6745 9.29858 20.0767 9.29858C20.4798 9.29858 20.8831 9.14451 21.1904 8.83654C21.8043 8.22139 21.8034 7.22514 21.1882 6.61123L15.4542 0.888575C14.8392 0.274669 13.8428 0.27545 13.2288 0.890762C12.6149 1.50592 12.6159 2.50217 13.231 3.11607L18.9651 8.83889Z" fill="url(#paint1_linear_350:10348)"/>
<path d="M59.6439 9.299C60.0462 9.299 60.4487 9.14557 60.7559 8.83885L66.4856 3.11603C67.1004 2.50197 67.1011 1.50557 66.4868 0.890723C65.8728 0.275879 64.8765 0.275254 64.2615 0.889473L58.5318 6.61229C57.917 7.22635 57.9164 8.22275 58.5306 8.8376C58.8379 9.14525 59.2409 9.299 59.6439 9.299Z" fill="url(#paint2_linear_350:10348)"/>
<path d="M9.81519 67.6882C9.20598 68.3079 9.21441 69.3043 9.83426 69.9135L9.83879 69.9179C10.1446 70.2185 10.5416 70.3682 10.9385 70.3682C11.3458 70.3682 11.7532 70.2106 12.0618 69.8966C12.671 69.277 12.6602 68.2784 12.0405 67.6691C11.421 67.0599 10.4247 67.0685 9.81519 67.6882Z" fill="white" fill-opacity="0.7"/>
<path d="M53.5322 55.0414C53.7715 55.0414 54.0144 54.9869 54.2423 54.872C55.0183 54.4806 55.33 53.5343 54.9387 52.7584C54.5473 51.9825 53.6009 51.6706 52.8251 52.062L52.8164 52.0664C52.0405 52.4578 51.7331 53.4018 52.1244 54.1778C52.4006 54.7259 52.9562 55.0414 53.5322 55.0414Z" fill="white" fill-opacity="0.7"/>
<defs>
<linearGradient id="paint0_linear_350:10348" x1="38.0557" y1="-3.53491" x2="43.4011" y2="-2.82506" gradientUnits="userSpaceOnUse">
<stop stop-color="#FF9500"/>
<stop offset="1" stop-color="#FF5E3A"/>
<stop offset="1" stop-color="#FF5E3A"/>
</linearGradient>
<linearGradient id="paint1_linear_350:10348" x1="12.1175" y1="-2.65562" x2="25.0772" y2="2.9105" gradientUnits="userSpaceOnUse">
<stop stop-color="#FF9500"/>
<stop offset="1" stop-color="#FF5E3A"/>
<stop offset="1" stop-color="#FF5E3A"/>
</linearGradient>
<linearGradient id="paint2_linear_350:10348" x1="57.4191" y1="-2.65511" x2="70.3744" y2="2.90642" gradientUnits="userSpaceOnUse">
<stop stop-color="#FF9500"/>
<stop offset="1" stop-color="#FF5E3A"/>
<stop offset="1" stop-color="#FF5E3A"/>
</linearGradient>
</defs>
</svg>
